Engleski,Hrvatski
"definite article","određeni član"
"adjective: 1st and 2nd declension","pridjev 1. i 2. deklinacije"
"conjunction: coordinating","veznik, koordinirani"
pronoun,zamjenica
"verb: irregular","glagol, nepravilan"
preposition,prijedlog
adverb,prilog
"verb: -ω palatal stem","glagol: palatalna osnova -ω"
"conjunction: subordinating","veznik, zavisni"
"verb: deponent","glagol, deponentan"
"noun: 3rd declension irregular","imenica 3. deklinacije, nepravilna"
"verb: -μι","glagol, -μι osnove"
"verb: contracted","glagol, stegnuti"
"noun: 2nd declension","imenica 2. deklinacije"
"noun: 3rd declension ι-stem","imenica 3. deklinacije, ι-osnove"
"adjective: numeral","pridjev: broj"
"verb: -ω liquid stem","glagol, likvidna -ω osnova"
"noun: 3rd declension consonant stem","imenica 3. deklinacije, konzonantske osnove"
"verb: impersonal","glagol, bezlični"
"noun: 1st declension","imenica 1. deklinacije"
"verb: -ω vowel stem","glagol -ω osnove"
"noun: 3rd declension σ-stem","imenica 3. deklinacije, σ-osnove"
"noun: 3rd declension -εύς, -έως","imenica 3. deklinacije -εύς, -έως"
interjection,uzvik
"verb: -ω labial stem","glagol -ω labijalne osnove"
"verb: -ω dental stem","glagol -ω dentalne osnove"
"adjective: 3rd declension -ης, -ες","pridjev 3. deklinacije -ης, -ες"
"adjective: 3rd declension -ων, -ον","pridjev 3. deklinacije -ων, -ον"
"adjective: -ύς, -εῖα, -ύ","pridjev -ύς, -εῖα, -ύ"
Adverb,Prilog
"Noun: 1st Declension","Imenica 1. deklinacije"
"Verb: 2nd Conjugation","Glagol 2. konjugacije"
"Verb: 3rd Conjugation -ō","Glagol 3. konjugacije na -ō"
"Noun: 2nd Declension","Imenica 2. deklinacije"
"Noun: 3rd Declension","Imenica 3. deklinacije"
"Verb: 1st Conjugation","Glagol 1. konjugacije"
"Adjective: 1st and 2nd Declension","Pridjev 1. i 2. deklinacije"
"Verb: 4th Conjugation","Glagol 4. konjugacije"
"Verb: Deponent","Glagol, deponentni"
"Adjective: 3rd Declension","Pridjev 3. deklinacije"
"Noun: 4th Declension","Imenica 4. deklinacije"
Conjunction,Veznik
Preposition,Prijedlog
"Verb: Irregular","Glagol, nepravilan"
"Verb: 3rd Conjugation -iō","Glagol 3. konjugacije na -iō"
"Noun: 5th Declension","Imenica 5. deklinacije"
Pronoun,Zamjenica
"Adjective: Numeral","Pridjev, broj"
"Verb: Impersonal","Glagol, bezlični"
"Noun: Indeclinable","Imenica, nesklonjiva"
"Adjective: Indeclinable","Pridjev, nesklonjiv"
