Engleski,Hrvatski
Pronouns/Interrogatives,Zamjenice
Conjunctions/Adverbs,Veznici/prilozi
Particles,Čestice
"Humanity and Being","Čovječanstvo i postojanje"
Direction,Smjer
"Writing and Talking","Pismo i govor"
"Prepositions without Direction","Prijedlozi bez smjera"
"Measurements and Numerals","Mjere i brojevi"
"Taking and Giving","Dati i uzeti"
"Work and Leisure","Rad i slobodno vrijeme"
Time,Vrijeme
Religion,Vjera
"Ethics and Morals","Etika i moral"
"Government and Society","Vlast i društvo"
"The Senses and Feelings","Osjetila i osjećaji"
"The Mind, Perceiving and Learning","Razum, spoznaja, učenje"
Characteristics,Osobine
"Body Parts","Dijelovi tijela"
"World Order","Svjetski poredak"
Earth,Zemlja
"War and Peace","Rat i mir"
"Showing and Finding","Pokazati i naći"
"Law and Judgment","Zakon i sud"
"Family and Friendship and the Home","Obitelj, prijatelji, dom"
Movement,Kretanje
"Animals and Plants","Životinje i biljke"
"Life and Death","Život i smrt"
"Help and Safety","Pomoć i sigurnost"
Vision,Vid
Animals/Plants,Životinje/biljke
People,Ljudi
"Personality Traits/Characteristics","Karakterne osobine / svojstva"
"Life and Being","Život i egzistencija"
Justice,Pravda
"Social Life","Društveni život"
Geography,Geografija
Travel,Putovanje
Motion,Kretanje
"Air and Fire","Zrak i vatra"
Writing/Poetry,Pisanje/poezija
Speech/Oratory,Govor/govorništvo
Emotions,Osjećaji
"The Household","Domaćinstvo"
"Verbs of Compelling/Directing","Glagoli prinude / usmjeravanja"
"The City","Grad"
Education/Knowledge,Obrazovanje/znanje
Measurement,Mjere
Making/Doing,Djelovanje/stvaranje
Violence,Nasilje
"The Body",Tijelo
Place,Mjesto
"Earth and Water","Zemlja i voda"
"Verbs of Transport","Glagoli prenošenja"
"Other Senses","Ostala osjetila"
Deception,Obmana
"The House",Kuća
"Lengths of Time","Trajanje"
Business/Money,Poslovanje/novac
"Non-Directional Prepositions","Prijedlozi koji ne izriču smjer"
Love,Ljubav
Athletics,Sport
