{
  "@context": {
    "prov": "http://www.w3.org/ns/prov#"
  },
  "@id": "../../data/perseus-align.10143.1.xml",
  "@type": "prov:Entity",
  "prov:wasDerivedFrom": [
    {
      "@type": "prov:Entity",
      "@id": null
    }
  ]
}
